GDXDIFF          24.4.1 r50296 Released Dec 20, 2014 VS8 x86 32bit/MS Windows 
File1 : C:\Users\s131417\Documents\Fjernvarmemodellen\base\model\all.gdx
File2 : C:\Users\s131417\Desktop\Fjernvarmemodellen\B303\Balmorel303_20141016\base\model\all_B303.gdx
*** symbol = GKRATE cannot be compared
Dim1 = 4, Dim2 = 3
*** symbol = GMINF cannot be compared
Dim1 = 3, Dim2 = 2
*** symbol = TAX_FHO_C cannot be compared
Dim1 = 3, Dim2 = 2
*** symbol = TAX_HHO_C cannot be compared
Dim1 = 3, Dim2 = 2
*** symbol = XMAXINV cannot be compared
Dim1 = 3, Dim2 = 2
Summary of differences:
           AFFALDSVAERKER   Symbol not found in file 2
               ALLOWEDINV   Symbol not found in file 2
            ALLOWEDREFURB   Symbol not found in file 2
          BASELOADSERVICE   Symbol not found in file 2
                        C   Data are different
               CCCRRRAAA2   Symbol not found in file 2
                CFSTORAGE   Symbol not found in file 2
               CFSTORLOAD   Symbol not found in file 2
                   CO2TAX   Symbol not found in file 2
                     DATA   Symbol not found in file 2
                  DAYTYPE   Symbol not found in file 2
               DEFP_CALIB   Symbol not found in file 2
                DEF_AVAIL   Symbol not found in file 2
                DEF_STEPS   Keys are different
                DHFP_BASE   Keys are different
               DHFP_CALIB   Symbol not found in file 2
                    DHF_D   Symbol not found in file 2
                   DHF_D1   Symbol not found in file 1
                   DHF_D2   Symbol not found in file 1
                   DHF_D3   Symbol not found in file 1
                    DHF_U   Symbol not found in file 2
                   DHF_U1   Symbol not found in file 1
                   DHF_U2   Symbol not found in file 1
                   DHF_U3   Symbol not found in file 1
                  ECONSET   Keys are different
          ECONSETCATEGORY   Keys are different
                   EGOqAS   Data are different
                   EGOqAT   Data are different
                   EGOqAY   Data are different
                   EGOqCS   Data are different
                   EGOqCT   Data are different
                   EGOqCY   Data are different
                   EGOqRS   Data are different
                   EGOqRT   Data are different
                   EGOqRY   Data are different
                    EGqAS   Data are different
                    EGqAT   Data are different
                    EGqAY   Data are different
                    EGqCS   Data are different
                    EGqCT   Data are different
                    EGqCY   Data are different
                    EGqRS   Data are different
                    EGqRT   Data are different
                    EGqRY   Data are different
                   EHFqAS   Data are different
                   EHFqAT   Data are different
                   EHFqAY   Data are different
                   EHFqCS   Data are different
                   EHFqCT   Data are different
                   EHFqCY   Data are different
                   EHFqRS   Data are different
                   EHFqRT   Data are different
                   EHFqRY   Data are different
                ERRCOUNT2   Data are different
                ERRCOUNT5   Symbol not found in file 2
                ERRSETGGG   Symbol not found in file 1
                 EZG13qCY   Keys are different
                EZGO13qCY   Keys are different
                  EZGOqAS   Data are different
                  EZGOqAT   Data are different
                  EZGOqAY   Data are different
                   EZGqAS   Data are different
                   EZGqAT   Data are different
                   EZGqAY   Data are different
                    FDATA   Keys are different
                 FDATASET   Keys are different
              FDATA_WASTE   Symbol not found in file 2
                   FGEMAX   Symbol not found in file 1
                   FGEMIN   Symbol not found in file 1
                    FGMAX   Symbol not found in file 2
                    FGMIN   Symbol not found in file 2
                FKPOTSETA   Symbol not found in file 2
                FKPOTSETC   Symbol not found in file 2
                FKPOTSETR   Symbol not found in file 2
               FMAXINVEST   Keys are different
                FUELPRICE   Keys are different
                  FUELVAL   Symbol not found in file 2
                GCOMBSFLO   Symbol not found in file 2
                GCOMBSFUP   Symbol not found in file 2
                    GDATA   Data are different
                 GEFFRATE   Keys are different
                   GEQF_S   Symbol not found in file 2
               GFMINSHARE   Symbol not found in file 2
                   GGCOMB   Symbol not found in file 2
                 GINVCOST   Keys are different
                   GKNMAX   Symbol not found in file 1
                   GKRATE   Dimensions are different
                    GMAXF   Keys are different
                  GMAXF_S   Symbol not found in file 2
                GMAXF_TOT   Symbol not found in file 2
                    GMINF   Dimensions are different
                  GMINF_S   Symbol not found in file 2
                 GOMFCOST   Keys are different
                 GOMVCOST   Keys are different
          GREFURBISHMENTS   Symbol not found in file 2
                  GVDECOM   Symbol not found in file 2
                 GWNDDATA   Symbol not found in file 2
              GWNDDATASET   Symbol not found in file 2
                   HGOqAS   Data are different
                   HGOqAT   Keys are different
                   HGOqAY   Data are different
                   HGOqCS   Data are different
                   HGOqCT   Data are different
                   HGOqCY   Data are different
                   HGOqRS   Data are different
                   HGOqRT   Data are different
                   HGOqRY   Data are different
                    HGqAS   Data are different
                    HGqAT   Keys are different
                    HGqAY   Data are different
                    HGqCS   Data are different
                    HGqCT   Data are different
                    HGqCY   Data are different
                    HGqRS   Data are different
                    HGqRT   Data are different
                    HGqRY   Data are different
                 HSTO_END   Symbol not found in file 2
                 HSTO_STA   Symbol not found in file 2
                   HYFXRW   Symbol not found in file 2
               HYPPROFILS   Keys are different
                 HYRSDATA   Symbol not found in file 1
                HYRSDATAS   Symbol not found in file 2
              HYRSDATASET   Symbol not found in file 1
                   HYRSDS   Symbol not found in file 2
                    HYRSG   Symbol not found in file 1
                  HZGOqAT   Data are different
                   HZGqAT   Data are different
                     IAGK   Keys are different
                   IAGK_Y   Keys are different
                IBALVERSN   Data are different
                     ICRA   Symbol not found in file 2
                    ICRAA   Symbol not found in file 2
ICUMUATED_CAP_INSTALLED_Y   Symbol not found in file 2
                IDAYSIN_S   Symbol not found in file 2
                  IFINF_S   Symbol not found in file 2
                 IFUELVAL   Symbol not found in file 2
                 IG2level   Symbol not found in file 2
               IGACCDECOM   Symbol not found in file 2
                  IGALIAS   Symbol not found in file 2
                  IGCOMB1   Symbol not found in file 2
                  IGCOMB2   Symbol not found in file 2
                  IGDECOM   Symbol not found in file 2
               IGDISPATCH   Keys are different
                  IGEBASE   Symbol not found in file 2
                   IGERES   Symbol not found in file 2
                      IGH   Keys are different
                     IGHH   Keys are different
                IGHHNOSTO   Keys are different
                   IGHTOE   Symbol not found in file 2
                IGKFXYMAX   Symbol not found in file 1
                     IGKH   Keys are different
                IGKHNOSTO   Keys are different
                IGKNMAX_Y   Symbol not found in file 1
                  IGKRATE   Symbol not found in file 1
             IGMAXF_TOT_Y   Symbol not found in file 2
                 IGMAXF_Y   Keys are different
                    IGNUC   Symbol not found in file 2
                IGREBUILD   Symbol not found in file 2
                 IGREFURB   Symbol not found in file 2
         IGREFURBISHMENTS   Symbol not found in file 2
             IGROWTHCAP_Y   Symbol not found in file 2
                   IGSOLH   Keys are different
                  IGWASTE   Symbol not found in file 2
               IHOURSIN24   Symbol not found in file 2
                IHSTO_END   Symbol not found in file 2
                  IHYFXRW   Symbol not found in file 2
                 IM_CO2_Y   Symbol not found in file 2
                 IM_N2O_Y   Symbol not found in file 2
                 IM_SO2_Y   Symbol not found in file 2
              INVESTMENTS   Symbol not found in file 2
                    IOF1_   Symbol not found in file 1
                  IOF8784   Symbol not found in file 1
                    IRRRE   Data are different
                    IRRRI   Data are different
               IS3LOOPSET   Data are different
                  ISALIAS   Data are different
                 ISCALAR1   Data are different
                 ISCALAR2   Data are different
                 ISCALAR3   Data are different
                 ISCALAR4   Symbol not found in file 1
                  ITALIAS   Data are different
              ITAX_FMULTI   Symbol not found in file 2
                  ITAX_GE   Keys are different
                  ITAX_GH   Keys are different
                  ITAX_IE   Symbol not found in file 2
                  ITAX_KN   Symbol not found in file 1
               IWASTEFXRW   Symbol not found in file 2
                IWATERVAL   Symbol not found in file 2
         IWNDSPEEDPOWERST   Symbol not found in file 2
                IXKDERATE   Symbol not found in file 1
               IXMAXINV_Y   Symbol not found in file 2
   I_TIME_IF_MAX_GROWTH_Y   Symbol not found in file 2
               LOGISTIC_A   Symbol not found in file 2
               LOGISTIC_B   Symbol not found in file 2
                   NAT_SS   Symbol not found in file 2
      NOT_ALLOWEDINV_FUEL   Symbol not found in file 2
                  OALIASS   Data are different
                  OALIAST   Data are different
               OESUPPCURV   Keys are different
                OHEATECON   Keys are different
              OHEATECON_T   Symbol not found in file 2
                   OICOST   Data are different
                  OICOST2   Symbol not found in file 2
                   OIGFLH   Symbol not found in file 2
                  OIMONEY   Symbol not found in file 1
                OISCALAR1   Data are different
                OISUMCOST   Keys are different
                  OITAKEN   Keys are different
               OITEMPSET2   Symbol not found in file 2
                OIUNITSET   Keys are different
                OIUNITST2   Keys are different
                 OSCALAR2   Data are different
                 OSCALAR3   Data are different
                     OTLW   Symbol not found in file 1
                    OTLW1   Symbol not found in file 1
                  OTLWCRA   Symbol not found in file 1
                    OTLWG   Symbol not found in file 1
                QBASELOAD   Symbol not found in file 2
                QECOMBGLK   Symbol not found in file 2
               QECOMBKRES   Symbol not found in file 2
                QECOMBSLK   Symbol not found in file 2
                QECOMBSLO   Symbol not found in file 2
                QECOMBSUP   Symbol not found in file 2
                    QEDKY   Symbol not found in file 2
                QFCOMBCAP   Symbol not found in file 2
               QFCOMBKRES   Symbol not found in file 2
                QFCOMBSLO   Symbol not found in file 2
                QFCOMBSUP   Symbol not found in file 2
                 QFGEMAXA   Symbol not found in file 1
                 QFGEMAXC   Symbol not found in file 1
                 QFGEMAXR   Symbol not found in file 1
                 QFGEMINA   Symbol not found in file 1
                 QFGEMINC   Symbol not found in file 1
                 QFGEMINR   Symbol not found in file 1
              QFMAXINVEST   Symbol not found in file 1
             QFSTORLOAD_S   Symbol not found in file 2
                 QGCBGEXT   Data are different
                 QGCVGEXT   Data are different
                QGE2LEVEL   Symbol not found in file 2
                   QGEKOT   Symbol not found in file 2
                   QGEQAF   Symbol not found in file 1
                   QGEQCF   Symbol not found in file 1
                    QGEQF   Symbol not found in file 2
                  QGEQF_S   Symbol not found in file 2
                   QGEQRF   Symbol not found in file 1
                   QGHKOT   Symbol not found in file 2
               QGKNWND_WS   Symbol not found in file 2
                 QGKOHYRR   Symbol not found in file 2
                 QGKOSOLE   Symbol not found in file 2
                 QGKOSOLH   Symbol not found in file 2
                 QGKOWAVE   Symbol not found in file 2
                  QGKOWND   Symbol not found in file 2
                  QGMAXAF   Symbol not found in file 1
                  QGMAXCF   Symbol not found in file 1
                   QGMAXF   Symbol not found in file 2
                QGMAXFUEL   Symbol not found in file 2
                 QGMAXF_S   Symbol not found in file 2
               QGMAXF_TOT   Symbol not found in file 2
                  QGMAXRF   Symbol not found in file 1
                  QGMINAF   Symbol not found in file 1
                  QGMINCF   Symbol not found in file 1
                   QGMINF   Symbol not found in file 2
                QGMINFUEL   Symbol not found in file 2
                 QGMINF_S   Symbol not found in file 2
                  QGMINRF   Symbol not found in file 1
                QHCOMBGLK   Symbol not found in file 2
                QHCOMBSLO   Symbol not found in file 2
                QHCOMBSUP   Symbol not found in file 2
          QHSTOLOADTLIM_S   Symbol not found in file 2
           QHSTOVOLTLIM_S   Symbol not found in file 2
              QHSTOVOLT_S   Symbol not found in file 1
            QHSTOVOLT_S_1   Symbol not found in file 2
            QHSTOVOLT_S_2   Symbol not found in file 2
                  QHYFXCW   Symbol not found in file 2
                  QHYFXRW   Symbol not found in file 2
                  QHYMAXG   Symbol not found in file 1
                 QHYMAXRS   Symbol not found in file 2
                  QHYMING   Symbol not found in file 2
                 QHYMINRS   Symbol not found in file 2
              QHYRSMAXVOL   Symbol not found in file 1
              QHYRSMINVOL   Symbol not found in file 1
                   QKFUEL   Symbol not found in file 2
                  QKFUELA   Symbol not found in file 1
                  QKFUELC   Symbol not found in file 1
                  QKFUELR   Symbol not found in file 1
            QKFUEL_SCURVE   Symbol not found in file 2
             QLIMDEFAVAIL   Symbol not found in file 2
               QMAXINVEST   Symbol not found in file 2
               QNECOMBGLK   Symbol not found in file 2
               QNECOMBSLO   Symbol not found in file 2
               QNECOMBSUP   Symbol not found in file 2
               QNFCOMBSLO   Symbol not found in file 2
               QNHCOMBGLK   Symbol not found in file 2
               QNHCOMBSLO   Symbol not found in file 2
               QNHCOMBSUP   Symbol not found in file 2
               QWASTEFXRW   Symbol not found in file 2
                 QXGNETOH   Symbol not found in file 2
                  QXRAMPD   Symbol not found in file 2
                  QXRAMPU   Symbol not found in file 2
                      RRR   Data are different
                 RUSSIADH   Symbol not found in file 2
                        S   Data are different
                   SameAs   Keys are different
                       SC   Symbol not found in file 2
                 SCENARIO   Symbol not found in file 2
                SCENARIOS   Symbol not found in file 2
                SCENARSIM   Symbol not found in file 2
                    STEPS   Symbol not found in file 2
                        T   Data are different
                 TAX_DE_R   Symbol not found in file 2
               TAX_FCHP_C   Symbol not found in file 1
                  TAX_FHO   Symbol not found in file 1
                TAX_FHO_C   Dimensions are different
                   TAX_GE   Keys are different
                 TAX_GE_F   Symbol not found in file 2
                   TAX_GF   Keys are different
                   TAX_GH   Keys are different
                TAX_HHO_C   Dimensions are different
                   TAX_IE   Symbol not found in file 2
                   TAX_KN   Symbol not found in file 1
                 TECHNAME   Symbol not found in file 2
                 TECHTYPE   Symbol not found in file 2
                 TWEEKEND   Data are different
                 TWORKDAY   Data are different
                VFSTORAGE   Symbol not found in file 2
               VFSTORLOAD   Symbol not found in file 2
                VGE2LEVEL   Symbol not found in file 2
                    VGE_T   Data are different
                    VGF_T   Data are different
                    VGH_T   Data are different
               VHSTOLOADT   Data are different
             VHSTOLOADT_S   Symbol not found in file 2
                VHSTOVOLT   Data are different
              VHSTOVOLT_S   Symbol not found in file 2
                 VHYRS_SL   Symbol not found in file 1
                VQESTOOLT   Symbol not found in file 2
                  VQGEQAF   Symbol not found in file 1
                 VQGEQAFS   Symbol not found in file 2
                  VQGEQCF   Symbol not found in file 1
                   VQGEQF   Symbol not found in file 2
                 VQGEQF_S   Symbol not found in file 2
                  VQGEQRF   Symbol not found in file 1
                 VQGMAXAF   Symbol not found in file 1
                 VQGMAXCF   Symbol not found in file 1
                  VQGMAXF   Symbol not found in file 2
                VQGMAXF_S   Symbol not found in file 2
              VQGMAXF_TOT   Symbol not found in file 2
                 VQGMAXRF   Symbol not found in file 1
                 VQGMINAF   Symbol not found in file 1
                 VQGMINCF   Symbol not found in file 1
                  VQGMINF   Symbol not found in file 2
                VQGMINF_S   Symbol not found in file 2
                 VQGMINRF   Symbol not found in file 1
                  VQKFUEL   Symbol not found in file 2
                  VREFURB   Symbol not found in file 2
                WASTEFXRW   Symbol not found in file 2
        WND_SPEED_POWER_T   Symbol not found in file 2
              WND_SPEED_T   Symbol not found in file 2
               WTRRSVAR_S   Keys are different
                     X3FX   Keys are different
                 XINVCOST   Keys are different
                 XKDERATE   Keys are different
           xkderateDataAC   Symbol not found in file 2
           xkderateDataDC   Symbol not found in file 2
                    XKINI   Keys are different
                   XKRATE   Symbol not found in file 1
                  XMAXINV   Dimensions are different
                XRAMPRATE   Symbol not found in file 2
                 YIELDREQ   Symbol not found in file 2
                      YYY   Data are different
Output: C:\Users\s131417\Desktop\Fjernvarmemodellen\B303\Balmorel303_20141016\base\model\diffile.gdx
GDXDiff finished
