Version:              Balmorel version 3.03 (January 2014; latest 20150430)
File name:            printoutoverview.out
Time-stamp:          '09/08/16 00:27:26'
Case-identification: 'Balmorel Demo-example - default CASE identification'

Option PRINTFILES was set at yes, therefore some files will be printed.
Which files that are printed will depend on additional options' settings.

Overview of potential printout files with indication of content:

bal_1.out       "Energy balance by year and country"
eg_cy.out       "Annual net electricity generation, old and new technologies"
eg_gfcy.out     "Annual net electricity generation"
eg_gat.out      "Electricity production on units during each time segment"
ego_cy.out      "Annual net electricity generation from old technologies"
egn_cy.out      "Annual net electricity generation at new technologies"
ezgo_cy.out     "Total annual electricity generation from old technologies"
ezgn_cy.out     "Total annual electricity generation from new technologies"
esto_at.out     "Short term electricity storage contents, loading and unloading"
esto2_at.out    "Short term electricity storage contents at the beginning of each time segment"
hyrs_as.out     "Hydro power with storage: Inflow, generation, storage level, water values"
hg_cy.out       "Annual heat generation and heat taken from heat storage"
hgo_cy.out      "Annual heat generation from existing technologies"
hgn_cy.out      "Annual heat generation from new technologies"
hsto_at.out     "Short term heat storage contents, loading and unloading"
hsto2_at.out    "Short term heat storage contents at the beginning of each time segment"
ex_ry.out       "Annual electricity export and import by region"
exk_ry.out      "Transmission capacities (old plus new) by the end of the year"
xbottle.out     "Bottle neck information for electricity transmission"
ehf_gcy.out     "Annual fuel consumption by technologies and countries"
ehf_gry.out     "Annual fuel consumption by technologies and regions"
ehf_gay.out     "Annual fuel consumption by technologies and areas"
ehf_fcy.out     "Annual fuel consumption by fuels and countries"
f_fcy.out       "Annual fuel use by fuel type and country. Annual electricity and heat output by fuel type and country. Output/input relation."
ep_ry.out       "Annual weighted average electricity price"
ep_rt.out       "Electricity generation price by teme segment"
epnxt_ry.out    "Marginal electricity generation cost of the next unit"
epnxt_rt.out    "Marginal electricity generation cost of the next unit"
hp_ay.out       "Annual average heat prices"
hp_at.out       "Heat generation price by time segment"
mco2_cy.out     "Annual CO2 emissions"
mso2_cy.out     "Annual SO2 emissions"
mnox_cy.out     "Annual NOx emissions"
dfp_calib.out   "Used for calibration of demand functions for electricty and heat"

The naming of the printout files is made according to the following idea:
The first letter(s) indicate(s) the subject of the output files.
Then there is an underscore followed by letters which indicate the level of detail.
 C, R or A indicates the geographical level of detail.
 Y, S or T indicates the level of time segments.
 G indicates that information for each particular technology is available.
 Z is used to summarise over the following letters.
If there are no letters to identify the geographic level
the file contains information for all countries that are simulated in Balmorel.
If there is no letter to identify the time segments
the file contains information for the whole time span that is simulated in Balmorel.

In summary, the content of the output files are indicated by the following letters used in the file names:
