File errors.out: Detailed description of OptiWaste errors.
Version:         OptiWaste model 2016 -  Date 20161007 (last rev. 20161007 - Amalia)
File created:    11/02/16 11:13:20


================================================================================
The input data to OptiWaste was investigated for obvious errors:
================================================================================

No obvious errors detected in the input data before simulation of OptiWaste.


================================================================================
The output was investigated for obvious errors after optimisation:
================================================================================
No obvious errors detected after optimisation.
