Version:              ;Balmorel version 3.03 (January 2014; latest 20150430)
File name:            ;ehf_gcy.out
Time-stamp:           ;12/09/16 11:08:59
Solved:               ;BALBASE2
Case-identification:  ;Balmorel Demo-example - default CASE identification

Annual fuel consumption by technologies and countries, old plus new technologies.

Units: GWh

2035                                ;                         DENMARK;                         FINLAND;                         GERMANY;                          NORWAY;                          SWEDEN;                 Technology type;                            Fuel
    SurpHeat_FF                     ;                            1187;                               0;                               0;                               0;                               0;                            GHOB;                       SURPLUS_H
    GasTurCC-EXT-NG-30_49           ;                               0;                               0;                           15574;                               0;                               0;                            GEXT;                         NAT_GAS
    Engine-NG-30_49                 ;                              96;                               0;                          106246;                               0;                               0;                            GBPR;                         NAT_GAS
    Engine-BGn-EC-30_49             ;                            1943;                               0;                               0;                               0;                               0;                            GBPR;                   BIOGAS_EC_net
    SteamTur-Medi-BP-WW-30          ;                               0;                           20099;                               0;                               0;                           16625;                            GBPR;                      WOOD_WASTE
    SteamTur-Medi-BP-ST-10          ;                               0;                               0;                             588;                               0;                               0;                            GBPR;                           STRAW
    Wind-Onshore-30_49              ;                           17150;                               0;                          114824;                           25021;                            8127;                            GWND;                            WIND
    Wind-Offshore-10_19             ;                               0;                               0;                            2122;                               0;                             196;                            GWND;                            WIND
    Wind-Offshore-30_49             ;                           25201;                               0;                               0;                               0;                               0;                            GWND;                            WIND
    SolarPV-30_49                   ;                            1488;                               0;                           55333;                               0;                               0;                           GSOLE;                             SUN
    Boiler-NG-30_49                 ;                            1178;                             621;                            7500;                               0;                             200;                            GHOB;                         NAT_GAS
    GeothermalEl-30_50              ;                               0;                               0;                            4365;                               0;                               0;                            GCND;                           GeoEl
    HO-COOLING                      ;                               0;                            8056;                               0;                               0;                               0;                            GCND;                      MUNI_WASTE
    SOLE1                           ;                               0;                               0;                           17289;                               0;                               2;                           GSOLE;                             SUN
    Biofuel_SURPLUS_H               ;                            1226;                               0;                               0;                               0;                               0;                            GHOB;                       SURPLUS_H
    DE_Base                         ;                               0;                               0;                           58151;                               0;                               0;                            GWND;                            WIND
    FI_R_Decen_CC-E9-NGn            ;                               0;                             426;                               0;                               0;                               0;                            GEXT;                         NAT_GAS
    FI_R_Decen_ST-E9-NGn            ;                               0;                              85;                               0;                               0;                               0;                            GEXT;                         NAT_GAS
    CC-B9-NGn                       ;                               0;                             561;                               0;                               0;                               0;                            GBPR;                         NAT_GAS
    ST-B8-NG                        ;                               0;                             792;                               0;                               0;                             419;                            GBPR;                         NAT_GAS
    ST-B8-WW                        ;                               0;                            4473;                               0;                               0;                               0;                            GBPR;                      WOOD_WASTE
    FI_R_Industry_ST-B9-WW          ;                               0;                            3134;                               0;                               0;                               0;                            GBPR;                      WOOD_WASTE
    FI_R_Rural_CC-E9-NGn            ;                               0;                             434;                               0;                               0;                               0;                            GEXT;                         NAT_GAS
    FI_R_Rural_NU-C8-NU             ;                               0;                          123005;                               0;                               0;                               0;                            GCND;                         NUCLEAR
    FI_R_Rural_ST-B9-WW             ;                               0;                             455;                               0;                               0;                               0;                            GBPR;                      WOOD_WASTE
    ST-C8-WW                        ;                               0;                            2645;                               0;                               0;                               0;                            GCND;                      WOOD_WASTE
    FI_R_Rural_ST-E0-Wosn           ;                               0;                            1902;                               0;                               0;                               0;                            GEXT;                      WOOD_WASTE
    FI_R_Rural_ST-E7-NG             ;                               0;                             133;                               0;                               0;                               0;                            GEXT;                         NAT_GAS
    FI_R_Rural_ST-E9-WO             ;                               0;                             626;                               0;                               0;                               0;                            GEXT;                      WOOD_WASTE
    WI-L9                           ;                               0;                              26;                               0;                               0;                               0;                            GWND;                            WIND
    FI_R_Urban_ST-E9-NGn            ;                               0;                             834;                               0;                               0;                               0;                            GEXT;                         NAT_GAS
    HY-ROR                          ;                               0;                               0;                            3435;                               9;                               6;                           GHYRR;                           WATER
    HY-S01                          ;                               0;                            3022;                           16235;                            3031;                           14839;                           GHYRS;                           WATER
    HY-S02                          ;                               0;                            3022;                               0;                            3031;                           14839;                           GHYRS;                           WATER
    HY-S03                          ;                               0;                            3022;                               0;                            3031;                           14839;                           GHYRS;                           WATER
    HY-S04                          ;                               0;                            2405;                               0;                            3031;                           13280;                           GHYRS;                           WATER
    HY-S05                          ;                               0;                            1117;                               0;                            3031;                            8356;                           GHYRS;                           WATER
    HY-S06                          ;                               0;                             840;                               0;                           51675;                            4560;                           GHYRS;                           WATER
    HY-S07                          ;                               0;                             766;                               0;                           44520;                            2380;                           GHYRS;                           WATER
    HY-S08                          ;                               0;                             704;                               0;                           29426;                             743;                           GHYRS;                           WATER
    HY-S09                          ;                               0;                             621;                               0;                              63;                             609;                           GHYRS;                           WATER
    HY-S10                          ;                               0;                             470;                               0;                            4236;                             566;                           GHYRS;                           WATER
    ST-B9-MW                        ;                               0;                               0;                               0;                             348;                             995;                            GBPR;                      MUNI_WASTE
    SE_SURPLUS_H                    ;                               0;                               0;                               0;                               0;                            2733;                            GHOB;                       SURPLUS_H
    SE_M_Rural_CC-E0-NG_Ens         ;                               0;                               0;                               0;                               0;                             879;                            GEXT;                         NAT_GAS
    SE_M_Rural_NU-C8-NU             ;                               0;                               0;                               0;                               0;                          168367;                            GCND;                         NUCLEAR
    SE_M_Rural_ST-B9-MW             ;                               0;                               0;                               0;                               0;                             748;                            GBPR;                      MUNI_WASTE
    ST-B9-WW                        ;                               0;                               0;                               0;                               0;                            8375;                            GBPR;                      WOOD_WASTE
    SE_N_Rural_ST-B9-MW             ;                               0;                               0;                               0;                               0;                             434;                            GBPR;                      MUNI_WASTE
    SE_S_Rural_CC-E0-NGn            ;                               0;                               0;                               0;                               0;                             926;                            GEXT;                         NAT_GAS
    HO-B8-MW                        ;                               0;                               0;                               0;                             334;                           13378;                            GHOB;                      MUNI_WASTE
    HO-B8-NG                        ;                               0;                               3;                               0;                               0;                               0;                            GHOB;                         NAT_GAS
    SE_S_Rural_ST-B9-ST             ;                               0;                               0;                               0;                               0;                             126;                            GBPR;                           STRAW
    SE_S_Rural_ST-E7-NG             ;                               0;                               0;                               0;                               0;                             353;                            GEXT;                         NAT_GAS
    DE_HO-MW                        ;                               0;                               0;                            2057;                               0;                               0;                            GHOB;                      MUNI_WASTE
    DE-COND-MISC-0-00               ;                               0;                               0;                            2077;                               0;                               0;                            GCND;                      MUNI_WASTE
    DE-COND-MISC-0-91               ;                               0;                               0;                            3197;                               0;                               0;                            GCND;                      MUNI_WASTE
    DE-EL-ST                        ;                               0;                               0;                           12653;                               0;                               0;                           GESTO;                        ELECTRIC
    DE-KWK-COAL-ST-00               ;                               0;                               0;                             269;                               0;                               0;                            GEXT;                            COAL
    DE-KWK-GAS-CC-91                ;                               0;                               0;                           18875;                               0;                               0;                            GEXT;                         NAT_GAS
    DE-KWK-GAS-GT-00                ;                               0;                               0;                            3099;                               0;                               0;                            GEXT;                         NAT_GAS
    DE-KWK-GAS-IC-00                ;                               0;                               0;                             723;                               0;                               0;                            GEXT;                         NAT_GAS
    DE-KWK-GAS-ST-00                ;                               0;                               0;                           10906;                               0;                               0;                            GEXT;                         NAT_GAS
    DE-KWK-MISC-IC-00               ;                               0;                               0;                            2259;                               0;                               0;                            GEXT;                      MUNI_WASTE
    DE-KWK-MISC-ST-00               ;                               0;                               0;                            4623;                               0;                               0;                            GEXT;                      MUNI_WASTE
    DE-COND-GAS-CC-0-91             ;                               0;                               0;                           13500;                               0;                               0;                            GCND;                         NAT_GAS
    DE-KWK-GAS-CC-00                ;                               0;                               0;                           10541;                               0;                               0;                            GEXT;                         NAT_GAS
    DE-KWK-LIGN-ST-00               ;                               0;                               0;                            4453;                               0;                               0;                            GEXT;                         LIGNITE
    DK_E_Rural_SolarDH_35           ;                              25;                               0;                               0;                               0;                               0;                           GSOLH;                             SUN
    DK_W_Rural_SolarDH_35           ;                             151;                               0;                               0;                               0;                               0;                           GSOLH;                             SUN
    DK_W_Rural_SteamTur-Medi-BP-WO_3;                              10;                               0;                               0;                               0;                               0;                            GBPR;                            WOOD
    SolarPV_Old                     ;                               0;                               0;                               0;                               0;                               0;                           GSOLE;                             SUN
    SolarPV_New                     ;                             806;                               0;                               0;                               0;                               0;                           GSOLE;                             SUN
    Wind_onshore                    ;                             945;                               0;                               0;                               0;                               0;                            GWND;                            WIND
    WtECHP_Large                    ;                               0;                               0;                          122175;                               0;                               0;                            GBPR;                      MUNI_WASTE
    WtEBoiler_Small                 ;                               0;                               0;                               0;                            6061;                               0;                            GHOB;                      MUNI_WASTE
    ASV6                            ;                             171;                               0;                               0;                               0;                               0;                            GBPR;                            WOOD
    BIO4                            ;                             899;                               0;                               0;                               0;                               0;                            GEXT;                            WOOD
    SteamTur_BP_WO_planned_NrdOstSJ ;                             204;                               0;                               0;                               0;                               0;                            GBPR;                            WOOD
    SteamTur_BP_WO_planned_Hil      ;                              88;                               0;                               0;                               0;                               0;                            GBPR;                            WOOD
    SteamTur_BP_ST_planned          ;                             666;                               0;                               0;                               0;                               0;                            GBPR;                           STRAW
    Central-CHP-BG-10_19            ;                               0;                               0;                            2460;                               0;                               0;                            GEXT;                          BIOGAS
    DK_W_Rural_Engine_BGn_EC_BP_35  ;                              18;                               0;                               0;                               0;                               0;                            GBPR;                   BIOGAS_EC_net
    DK_E_Rural_GasTur_BGn_EC-BP_35  ;                              91;                               0;                               0;                               0;                               0;                            GBPR;                   BIOGAS_EC_net
    Boiler-BGn_EC-30_49             ;                            4055;                               0;                               0;                               0;                               0;                            GHOB;                   BIOGAS_EC_net
    ASV6_Comb_ST                    ;                             171;                               0;                               0;                               0;                               0;                            GBPR;                           STRAW
    OEKR6_Recon_Comb_ST             ;                             213;                               0;                               0;                               0;                               0;                            GBPR;                           STRAW
    DK_CA_Hern_Boiler_NG_35         ;                              63;                               0;                               0;                               0;                               0;                            GHOB;                         NAT_GAS
    DK_MA_Hil_Boiler_NG_35          ;                              19;                               0;                               0;                               0;                               0;                            GHOB;                         NAT_GAS
    DK_MA_Holst_Boiler_NG_35        ;                              26;                               0;                               0;                               0;                               0;                            GHOB;                         NAT_GAS
    DK_MA_Silk_Boiler_NG_35         ;                               1;                               0;                               0;                               0;                               0;                            GHOB;                         NAT_GAS
    DK_MA_Sndborg_Boiler_NG_35      ;                               3;                               0;                               0;                               0;                               0;                            GHOB;                         NAT_GAS
    DK_MA_Viborg_Boiler_NG_35       ;                              25;                               0;                               0;                               0;                               0;                            GHOB;                         NAT_GAS
    DK_MAM_Frdhavn_Boiler_NG_35     ;                              13;                               0;                               0;                               0;                               0;                            GHOB;                         NAT_GAS
    DK_MAM_Nyborg_Incinerator-Hazard;                              91;                               0;                               0;                               0;                               0;                            GBPR;                  HAZARDOUSWASTE
    DK_MA_Hil_SolarDH_35            ;                               2;                               0;                               0;                               0;                               0;                           GSOLH;                             SUN
    DK_MA_Sndborg_SolarDH_35        ;                               5;                               0;                               0;                               0;                               0;                           GSOLH;                             SUN
    DK_CA_KBH_SteamTur_EXT_WP_35    ;                            2150;                               0;                               0;                               0;                               0;                            GEXT;                    WOOD_PELLETS
    DK_CA_Odense_SteamTur-Medi-BP-WO;                             168;                               0;                               0;                               0;                               0;                            GBPR;                            WOOD
    DK_MA_Sndborg_GasTur-BP_35      ;                              21;                               0;                               0;                               0;                               0;                            GBPR;                         NAT_GAS
    DK_CA_Hern_Boiler_BG_EC_Comb_35 ;                             139;                               0;                               0;                               0;                               0;                            GHOB;                   BIOGAS_EC_net
    DK_MA_Hil_Boiler_BG_EC_Comb_35  ;                              28;                               0;                               0;                               0;                               0;                            GHOB;                   BIOGAS_EC_net
    DK_MA_Holst_Boiler_BG_EC_Comb_35;                             129;                               0;                               0;                               0;                               0;                            GHOB;                   BIOGAS_EC_net
    DK_MA_Silk_Boiler_BG_EC_Comb_35 ;                               4;                               0;                               0;                               0;                               0;                            GHOB;                   BIOGAS_EC_net
    DK_MA_Sndborg_Boiler_BG_EC_Comb_;                              30;                               0;                               0;                               0;                               0;                            GHOB;                   BIOGAS_EC_net
    DK_MA_Viborg_Boiler_BG_EC_Comb_3;                              69;                               0;                               0;                               0;                               0;                            GHOB;                   BIOGAS_EC_net
    DK_MAM_Frdhavn_Boiler_BG_EC_Comb;                              37;                               0;                               0;                               0;                               0;                            GHOB;                   BIOGAS_EC_net
    DK_CA_Odense_BGasTur_Comb-BP_35 ;                              76;                               0;                               0;                               0;                               0;                            GBPR;                   BIOGAS_EC_net
    DK_MA_Sndborg_BGasTur_Comb-BP_35;                             242;                               0;                               0;                               0;                               0;                            GBPR;                   BIOGAS_EC_net
    HeatPump-EL-30_49               ;                            3375;                            8162;                               0;                             992;                            7110;                           GETOH;                        ELECTRIC
    HeatPump_LargeDH-EL-30_49       ;                               3;                               0;                               0;                               0;                               0;                           GETOH;                        ELECTRIC
    EH-P9                           ;                               0;                               0;                               0;                              11;                             224;                           GETOH;                        ELECTRIC
    HeatPump-Ind-35                 ;                            3226;                               0;                               0;                               0;                               0;                           GETOH;                        ELECTRIC

