Version:              ;Balmorel version 3.03 (January 2014; latest 20150430)
File name:            ;ezgn_cy.out
Time-stamp:           ;12/09/16 11:08:59
Solved:               ;BALBASE2
Case-identification:  ;Balmorel Demo-example - default CASE identification
Total annual electricity generation from new technologies
(Excl. electricity consumption at heat pumps)
Units: GWh

YEAR             DENMARK     FINLAND     GERMANY      NORWAY      SWEDEN
2035               44797        6231      259632       25021       13281
