Version:              ;Balmorel version 3.03 (January 2014; latest 20150430)
File name:            ;hgn_cy.out
Time-stamp:           ;12/09/16 11:08:59
Solved:               ;BALBASE2
Case-identification:  ;Balmorel Demo-example - default CASE identification
Annual heat generation from new technologies

Units: GWh

2035             DENMARK     FINLAND     GERMANY      NORWAY      SWEDEN
Electrolyser        1202          42         227          52          77
GasTurCC-EXT           0           0        1875           0           0
Engine-NG-30          45           0       50440           0           0
Engine-BGn-E         922           0           0           0           0
SteamTur-Med           0       15476           0           0       12802
HeatPump-EL-       12825       31014           0        3771       27018
HeatPump_Lar           6           0           0           0           0
Boiler-NG-30        1225         645        7800           0         208
G-HSTORE-10         1549         897       22166        1457        3382
WtECHP_Large           0           0       89643           0           0
WtEBoiler_Sm           0           0           0        5758           0
Boiler-BGn_E        4217           0           0           0           0
TOTAL              20444       47178      149985        9581       40105

