Version:              ;Balmorel version 3.03 (January 2014; latest 20150430)
File name:            ;hsto2_at.out
Time-stamp:           ;12/09/16 11:08:59
Solved:               ;BALBASE2
Case-identification:  ;Balmorel Demo-example - default CASE identification

"Short term heat storage contents (MWh) at the beginning of each time segment"



2035                T001        T025        T026        T027        T028        T029        T030        T031        T032        T033        T034        T035        T036        T037        T038        T039        T040        T041        T042        T043        T044        T045        T046        T047        T048        T001        T025        T026        T027        T028        T029        T030        T031        T032        T033        T034        T035        T036        T037        T038        T039        T040        T041        T042        T043        T044        T045        T046        T047        T048        T001        T025        T026        T027        T028        T029        T030        T031        T032        T033        T034        T035        T036        T037        T038        T039        T040        T041        T042        T043        T044        T045        T046        T047        T048
DK_CA_Esb           68.1        99.1       120.2       143.9       171.0       196.5       221.8       244.8       249.9       233.3       213.4       193.2       172.2       153.3       137.6       122.2       107.1        89.1        71.8        52.8        32.5        14.4         0.0         9.8        36.5       325.9       370.1       414.6       459.0       501.3       543.2       584.9       626.9       632.0       576.7       496.8       413.4       330.0       246.6       194.2       155.7       132.2       121.3       117.8       122.5       135.0       161.4       193.4       234.5       279.4       172.3       202.2       236.6       271.2       306.0       340.5       374.3       407.2       422.0       390.7       330.3       255.7       175.2        98.2        48.8        12.4         0.0         2.5         9.7        22.5        40.4        58.2        77.9       106.6       138.5
DK_CA_Hern           0.0         0.0         0.0         1.2         1.2         1.2         1.2         1.2         1.2         1.2         1.2         1.0         0.3         0.3         0.3         0.3         0.3         0.3         0.3         0.3         0.0         0.0         0.0         0.0         0.0       140.3       170.0       199.9       229.7       259.2       287.8       317.4       345.6       348.7       313.7       260.2       202.8       142.5        84.6        49.4        23.4         7.5         2.1         0.0         3.4        11.9        29.8        51.4        78.9       109.1        85.3       100.5       118.8       137.1       155.7       173.9       191.7       211.0       218.2       205.2       172.8       131.0        85.2        41.8        16.8         0.4         0.0         0.0         1.4         7.2        16.5        25.7        36.0        50.9        67.5
DK_CA_Kal          397.7       342.5       287.3       232.1       176.9       143.3       125.8       119.3       114.1       120.0       136.2       136.2       136.2       153.0       188.1       234.5       275.8       298.0       301.0       319.4       354.7       389.5       407.7       418.4       418.4       243.9       265.4       291.4       316.7       340.3       364.0       386.0       410.2       418.4       394.0       338.8       283.6       228.4       173.2       139.5       113.4        96.5       106.0       116.7       127.6       141.8       158.2       175.9       197.1       220.4        92.8       107.4       124.7       143.0       161.4       179.4       197.3       214.0       220.6       202.2       155.5       107.4        59.0        11.8         1.1         0.0         3.5         8.2        14.1        20.5        27.6        35.2        42.7        58.4        75.9
DK_CA_KBH         2078.1      1713.6      1210.9       901.5       654.6       427.0       234.5         0.0        86.5       134.4       187.7       187.7       187.7       326.9       533.6       786.8      1032.3      1228.6      1256.0      1398.0      1558.2      1744.2      1888.6      2039.7      2109.7      2173.7      2485.9      2862.8      3229.4      3588.2      3939.3      4282.5      4633.6      4764.1      4411.6      3610.9      2810.3      2009.6      1209.0       689.9       279.6         0.0       148.6       316.1       478.4       687.3       927.2      1185.2      1494.8      1833.0      1002.3      1234.3      1505.0      1788.7      2074.9      2356.0      2634.5      2897.4      2897.4      2673.1      2045.9      1399.7       748.1       115.5         0.0         3.2        77.5        77.5        77.5        77.5        77.5        77.5       211.6       463.4       736.7
DK_CA_Odense      1440.2      1487.2      1535.2      1589.2      1650.6      1708.6      1766.0      1818.2      1828.0      1792.1      1749.1      1705.4      1660.0      1619.0      1585.3      1552.4      1520.1      1481.3      1443.9      1403.0      1359.0      1319.9      1289.1      1308.6      1368.6       462.5       560.7       659.4       757.9       853.1       950.1      1043.7      1136.7      1146.9      1033.4       853.4       660.3       457.3       262.4       143.8        56.4         8.3         0.0         0.0        12.3        39.4        97.8       168.6       259.7       359.3       391.6       457.1       532.9       608.9       685.5       761.2       835.6       913.4       950.5       879.8       743.8       576.1       395.2       222.1       110.9        28.5         0.0         9.1        23.7        56.6        97.0       139.4       183.9       247.2       317.3
DK_CA_Rander       248.2       262.6       272.4       283.6       296.3       308.2       320.1       330.8       332.0       324.4       315.2       306.0       296.3       287.6       280.4       273.5       266.6       258.4       250.4       241.7       232.4       224.1       217.5       220.9       233.3       100.8       122.1       143.5       164.9       186.2       207.2       228.5       248.7       251.7       226.6       188.0       146.6       103.1        61.3        35.8        17.0         5.4         1.5         0.0         2.4         8.6        21.4        36.9        56.7        78.3        85.5        99.2       115.1       131.0       147.0       162.9       178.5       195.2       202.0       187.1       158.1       122.4        83.9        47.0        23.4         6.0         0.0         2.2         5.0        12.2        21.8        31.3        41.7        55.3        70.0
DK_CA_Roenne       134.1       114.8        92.3        73.0        54.8        36.4        26.0        12.3         2.7         0.0         4.8         2.0         6.9        19.4        40.3        61.8        83.2       104.6       117.8       138.3       153.8       162.0       162.2       156.7       144.0       163.4       163.4       163.4       170.9       170.9       170.9       170.9       170.9       161.8       144.4       129.8       114.7        99.6        85.3        76.2        68.9        63.8        55.0        54.5        61.6        74.7        96.2       110.2       131.6       151.3        22.4        25.9        30.0        34.4        38.8        43.2        47.5        51.5        53.1        48.7        37.4        25.9        14.2         2.9         0.3         0.0         0.8         2.0         3.4         4.9         6.6         8.5        10.3        14.1        18.3
DK_CA_TVIS         102.5       150.0       183.0       219.9       261.7       301.3       340.4       376.2       382.4       356.5       327.4       296.2       265.5       237.2       212.4       188.3       164.5       137.1       109.9        80.4        48.9        22.4         0.0        13.1        53.9       296.1       359.8       424.0       487.9       551.2       614.2       677.6       737.9       747.2       667.9       551.8       428.7       305.7       182.6       107.0        51.9        20.5         6.2         0.0         5.3        22.1        59.6       105.3       164.3       229.0       260.7       306.4       358.9       411.6       463.9       516.4       566.1       613.9       637.3       589.4       498.4       386.4       265.8       150.3        75.7        20.0         0.0         5.0        15.3        33.4        61.5        89.4       119.7       160.4       209.1
DK_CA_Aab            2.4         4.0         4.7         5.6         6.6         7.5         8.4         9.2         9.4         8.7         8.0         7.3         6.5         5.8         5.2         4.6         4.0         3.3         2.7         2.0         1.2         0.5         0.0         0.3         1.2         0.1         0.1         0.0         0.0         0.0         0.0         0.0         0.0         0.0         1.6         3.2         4.6         5.9         7.3         8.8        10.4        12.0        12.6        11.0         9.3         8.4         6.7         5.0         3.4         1.7         0.0         0.0         0.0         0.0         0.0         0.0         0.0         0.0         0.0         0.0         0.0         0.0         0.0         0.0         0.0         0.0         0.0         0.0         0.0         0.0         0.0         0.0         0.0         0.0         0.0
DK_CA_Aal          640.4       712.2       746.4       784.9       828.7       870.0       910.9       948.2       953.3       925.4       892.3       858.8       824.0       792.5       766.0       740.2       714.9       684.8       655.8       624.2       590.5       560.2       533.9       546.6       589.3       396.1       477.2       557.0       638.2       638.2       638.2       717.0       717.0       717.0       641.1       526.0       401.5       275.7       149.9        78.7        29.8         4.8         0.0         5.0        22.8        53.1       105.7       167.2       232.6       312.8       161.8       161.8       161.8       161.8       251.4       332.2       420.1       420.1       420.1       404.0       341.2       255.7       160.8        71.5        26.5         0.0         0.0         0.0         0.0         0.0         0.0         0.0         0.0        77.0       161.8
DK_CA_Aarhus      1007.1      1126.8      1182.5      1245.5      1317.5      1385.3      1452.5      1513.4      1525.9      1479.1      1423.5      1367.2      1308.7      1255.7      1211.4      1168.2      1125.7      1075.2      1026.5       973.5       916.9       866.0       825.4       850.7       922.7       776.7       866.2       956.4      1046.3      1192.6      1313.8      1396.5      1479.8      1525.9      1409.3      1226.2      1027.0       825.7       624.4       505.0       434.3       404.3       408.3       408.3       408.3       411.4       452.5       508.9       589.7       681.0       890.6       963.9      1049.6      1135.7      1222.4      1308.1      1392.1      1479.9      1525.9      1451.6      1308.8      1138.1       940.7       744.7       613.3       506.0       464.1       469.3       486.9       513.9       560.9       607.5       658.7       727.8       806.6
DK_E_DTU             1.8         4.0         4.4         6.6         9.3        12.0        14.6        16.5        16.1        15.0        13.6        12.5        11.2         9.8         8.9         8.4         7.9         6.9         5.5         3.9         2.5         1.3         0.0         0.1         0.7        22.3        18.7        15.8        12.8         9.6         6.5         3.2         0.0         0.0         0.0         4.8         9.3        13.8        18.7        26.6        35.4        45.5        56.0        50.9        45.7        41.0        36.7        32.5        28.9        25.6         0.0         0.0         0.0         0.0         0.0         0.0         0.0         0.0         0.0         0.0         0.0         0.0         0.0         0.0         0.0         0.0         0.0         0.0         0.0         0.0         0.0         0.0         0.0         0.0         0.0
DK_MA_Grenaa        13.6        22.7        27.1        32.0        37.6        42.9        48.1        52.8        53.6        50.0        45.8        41.5        37.0        33.0        29.6        26.3        23.0        19.1        15.4        11.3         7.0         3.1         0.0         1.7         7.1        44.8        41.4        31.7        22.0        22.0        22.0        22.0        11.8        29.8        43.7        53.0        61.1        68.4        76.4        90.8       107.9       126.0       144.0       125.0       107.0        90.6        77.1        64.8        54.4        44.8         0.0         0.0         0.0         0.0         0.0         0.0         0.0         0.0         0.0         0.0         0.0         0.0         0.0         0.0         0.0         0.0         0.0         0.0         0.0         0.0         0.0         0.0         0.0         0.0         0.0
DK_MA_Hil          308.0       308.0       308.0       308.0       308.0       308.0       308.0       308.0       308.0       308.0       308.0       308.0       308.0       308.0       308.0       308.0       308.0       308.0       308.0       307.0       306.7       307.4       307.4       308.0       308.0       207.7       219.8       234.4       248.5       262.3       275.9       289.1       302.7       308.0       296.4       263.8       230.4       197.1       165.8       145.8       129.9       118.7       125.7       133.4       140.7       149.5       159.2       169.4       181.5       194.6       243.2       250.6       259.4       268.7       278.1       287.2       296.3       304.8       308.0       298.1       273.6       248.6       223.6       199.4       194.4       194.4       196.9       199.9       203.3       206.8       210.4       214.2       217.8       225.7       234.6
DK_MA_Hjoerr       134.4       143.3       149.3       156.2       164.0       171.3       178.6       185.2       185.9       181.2       175.6       169.9       163.9       158.6       154.2       149.9       145.7       140.6       135.7       130.3       124.6       119.5       115.5       117.6       125.2        95.4       108.4       121.5       134.5       147.4       160.0       172.5       184.8       185.9       170.3       146.5       121.9        97.4        72.9        57.1        45.4        38.1        35.5        34.5        35.8        39.5        47.2        56.6        68.6        81.8        52.9        61.3        71.0        80.7        90.5       100.2       109.8       119.7       124.6       115.3        97.5        75.5        51.8        29.1        14.5         3.7         0.0         1.3         4.0         8.4        14.2        19.8        26.1        34.5        43.4
DK_MA_Holst          0.0         0.0         0.0         0.0         0.0         0.0         0.0         0.0         0.0         0.0         0.0         0.0         0.0         0.0         0.0         0.0         0.0         0.0         0.0         0.0         0.0         0.0         0.0         0.0         0.0       141.3       159.9       179.8       199.7       217.9       236.0       254.2       273.0       275.1       252.2       216.9       180.6       144.3       108.0        84.8        67.7        57.2        53.8        52.7        54.2        59.5        71.5        84.8       101.9       120.5        77.3        90.9       106.5       122.2       137.3       152.9       168.1       183.0       190.0       175.7       148.6       115.2        79.2        44.8        22.6         6.0         0.0         1.6         5.2        11.3        19.6        27.9        36.9        49.0        63.5
DK_MA_Horsen        15.4        22.6        27.6        33.2        39.6        45.6        51.6        57.0        57.6        53.8        49.2        44.5        39.6        35.2        31.6        28.1        24.7        20.5        16.5        12.2         7.5         3.3         0.0         1.7         8.0        79.6        90.0       100.5       111.0       121.3       131.6       141.9       151.8       153.4       140.4       121.6       101.4        81.1        60.9        48.7        39.8        34.5        32.2        31.1        32.1        34.8        41.0        48.5        58.1        68.7        42.6        49.9        58.4        66.9        75.5        83.9        92.3       100.4       104.1        96.3        81.4        63.1        43.5        24.6        12.4         3.3         0.0         0.8         2.7         6.0        10.5        15.0        19.8        26.4        34.3
DK_MA_NrdOst        11.7        18.6        20.1        32.6        48.8        64.3        79.6        90.2        88.5        82.4        74.9        68.4        61.3        53.8        48.7        46.6        44.1        38.3        30.8        21.6        13.6         7.2         0.0         1.5         5.9       134.6       153.3       177.1       199.4       220.6       241.3       261.5       283.6       291.9       270.7       223.1       175.4       127.7        80.0        46.3        19.2         0.0         9.4        18.9        29.6        42.1        56.1        72.1        91.8       113.1       256.4       267.9       281.8       296.6       311.4       326.0       340.4       355.3       361.4       346.1       306.3       265.3       224.1       184.0       175.2       174.7       176.7       181.3       186.8       192.7       199.3       206.4       213.3       227.2       242.8
DK_MA_Silk          22.1        31.9        38.6        46.2        54.9        63.1        71.2        78.6        80.4        75.1        68.7        62.2        55.4        49.3        44.2        39.3        34.5        28.7        23.1        17.0        10.4         4.6         0.0         3.4        11.9       141.8       156.6       171.4       186.3       200.9       215.6       230.2       244.3       246.0       228.6       201.9       173.3       143.2       114.4        96.8        83.8        75.7        73.0        72.0        73.7        78.0        86.9        97.6       111.3       126.3       164.9       174.6       185.5       196.4       207.4       218.3       229.0       240.5       246.0       235.5       215.4       190.6       163.9       138.3       121.9       109.7       105.5       106.9       109.9       114.8       121.3       127.8       134.9       144.2       154.3
DK_MA_Sndbor       222.7       222.7       219.3       216.7       215.0       212.8       210.6       207.8       207.8       209.3       210.0       210.7       211.2       212.3       214.3       216.3       218.4       219.6       220.9       221.9       222.5       225.0       225.0       225.0       223.1       179.2       179.2       207.4       225.0       225.0       225.0       225.0       225.0       218.4       195.7       167.0       137.3       107.6        78.0        57.6        41.1        28.7        19.5        19.5        19.5        47.7        75.9       104.1       132.3       160.5        28.3        33.5        39.9        46.3        52.8        59.2        65.4        72.1        73.9        69.5        57.8        42.8        26.6        11.7         4.1         0.0         0.0         0.4         1.4         3.2         6.3         9.0        11.8        16.4        22.1
DK_MA_Viborg         0.0         0.0         0.0         0.0         0.0         0.0         0.0         0.0         0.0         0.0         0.0         0.0         0.0         0.0         0.0         0.0         0.0         0.0         0.0         0.0         0.0         0.0         0.0         0.0         0.0        87.1        99.1       111.2       123.2       134.2       145.2       156.2       167.6       168.8       154.7       133.0       110.7        88.5        66.2        51.9        41.4        34.9        32.7        31.9        33.3        36.1        43.3        52.0        63.2        75.4        47.4        55.0        64.0        72.9        81.9        90.8        99.6       109.0       113.5       105.1        88.9        68.8        47.2        26.4        13.2         3.3         0.0         0.3         2.1         6.2        11.5        16.9        22.7        30.4        38.6
DK_MAM_Frdha         0.0         0.0         0.0         0.0         0.0         0.0         0.0         0.0         0.0         0.0         0.0         0.0         0.0         0.0         0.0         0.0         0.0         0.0         0.0         0.0         0.0         0.0         0.0         0.0         0.0        46.2        54.1        62.0        69.9        77.7        85.5        93.3       100.7       101.5        90.6        77.2        63.8        50.4        37.0        26.7        19.1        14.4        12.1        10.7        11.0        12.7        17.2        22.7        29.9        37.9        17.5        19.3        28.3        37.4        46.5        55.5        64.4        64.4        64.4        60.5        51.0        38.7        25.3        12.6         5.2         0.3         0.0         0.0         0.0         0.0         0.0         0.0         0.0         0.0         8.5
DK_MAM_Had           9.0        15.0        17.8        21.1        24.8        28.2        31.7        34.8        35.3        32.9        30.2        27.3        24.4        21.7        19.5        17.3        15.1        12.6        10.1         7.5         4.6         2.1         0.0         1.1         4.7         6.9         6.9         6.9         0.5         0.5         0.5         0.5         0.0         0.5         7.9        14.0        19.4        24.2        29.4        36.8        44.2        51.6        59.0        51.2        43.4        35.6        27.9        20.1        13.2         6.9         0.0         0.0         0.0         0.0         0.0         0.0         0.0         0.0         0.0         0.0         0.0         0.0         0.0         0.0         0.0         0.0         0.0         0.0         0.0         0.0         0.0         0.0         0.0         0.0         0.0
DK_MAM_Hamme         6.0         9.9        11.8        14.0        16.4        18.7        21.0        23.1        23.4        21.8        20.0        18.1        16.2        14.4        12.9        11.5        10.0         8.3         6.7         5.0         3.1         1.4         0.0         0.7         3.1        10.5        10.5         8.3         4.2         4.2         4.2         4.2         0.0         1.6         5.5         9.5        13.0        16.2        19.7        23.7        27.6        31.6        31.6        31.4        31.4        31.2        27.0        22.8        18.7        14.5         0.0         0.0         0.0         0.0         0.0         0.0         0.0         0.0         0.0         0.0         0.0         0.0         0.0         0.0         0.0         0.0         0.0         0.0         0.0         0.0         0.0         0.0         0.0         0.0         0.0
DK_MAM_Hobro         3.2         5.3         6.3         7.4         8.7        10.0        11.2        12.3        12.5        11.6        10.6         9.6         8.6         7.7         6.9         6.1         5.3         4.4         3.6         2.6         1.6         0.7         0.0         0.4         1.7        23.5        23.9        24.2        24.6        24.9        25.3        25.6        25.9        24.4        20.5        20.5        20.5        22.2        24.0        27.4        30.0        30.0        27.8        25.9        24.3        23.2        22.7        22.4        22.7        23.0         1.4         1.8         2.5         3.1         3.8         4.4         5.0         5.6         5.6         5.6         1.7         1.7         1.7         0.0         0.0         0.0         0.0         0.0         0.0         0.0         0.0         0.0         0.0         0.3         0.8
DK_MAM_Naest         4.3         9.4        10.3        15.4        21.9        28.2        34.4        38.8        37.8        35.2        32.1        29.3        26.3        23.1        20.9        19.8        18.6        16.1        12.9         9.1         5.8         3.0         0.0         0.3         1.8        16.7        14.0         7.1         0.0         0.0         0.0         0.0         0.0         0.0         0.0         8.8        17.5        26.3        35.1        43.9        52.6        61.4        70.0        70.0        60.8        51.5        42.3        33.1        24.5        16.7        70.0        70.0        70.0        70.0        70.0        70.0        70.0        70.0        70.0        70.0        70.0        70.0        70.0        70.0        70.0        70.0        70.0        70.0        70.0        70.0        70.0        70.0        70.0        70.0        70.0
DK_MAM_NrAls         0.4         1.0         1.0         1.6         2.2         2.9         3.5         3.9         3.8         3.6         3.2         3.0         2.7         2.3         2.1         2.0         1.9         1.6         1.3         0.9         0.6         0.3         0.0         0.0         0.2         3.2         2.4         1.7         0.9         0.8         0.8         0.8         0.0         0.0         0.5         1.7         2.7         3.8         5.0         6.2         7.5         8.7        10.0        10.0         8.8         7.7         6.6         5.6         4.8         4.0         0.0         0.0         0.0         0.0         0.0         0.0         0.0         0.0         0.0         0.0         0.0         0.0         0.0         0.0         0.0         0.0         0.0         0.0         0.0         0.0         0.0         0.0         0.0         0.0         0.0
DK_MAM_Nybor       138.6       146.4       150.2       154.4       159.2       163.7       168.2       172.3       173.0       169.9       166.3       162.6       158.7       155.2       152.3       149.4       146.6       143.3       140.1       136.6       132.9       129.5       126.8       128.3       133.0       146.9       146.9       146.9       146.9       155.0       163.1       171.2       171.2       173.0       164.5       151.8       138.0       123.5       109.7       101.7        96.0        93.0        92.1        92.1        92.1        92.1        92.1       109.6       123.7       138.4       134.0       134.0       136.2       145.5       154.7       163.9       173.0       173.0       173.0       170.7       163.4       153.6       142.8       132.7       127.3       124.0       124.9       124.9       124.9       124.9       124.9       124.9       124.9       124.9       124.9
DK_MAM_Nyk           4.6        10.0        10.9        16.3        23.2        29.9        36.4        41.1        40.1        37.3        34.0        31.0        27.9        24.5        22.2        21.0        19.7        17.1        13.7         9.7         6.1         3.2         0.0         0.3         1.9        55.5        46.6        39.3        31.8        24.0        16.1         7.9         0.0         0.0         2.0        14.0        25.2        36.4        48.7        68.3        90.3       114.9       139.5       126.7       113.9       102.2        91.4        81.0        72.0        63.7       196.0       196.0       196.0       196.0       196.0       196.0       196.0       196.0       196.0       196.0       196.0       196.0       196.0       196.0       196.0       196.0       196.0       196.0       196.0       196.0       196.0       196.0       196.0       196.0       196.0
DK_MAM_Skage         4.8         8.0         9.5        11.3        13.2        15.1        16.9        18.6        18.9        17.6        16.1        14.6        13.0        11.6        10.4         9.2         8.1         6.7         5.4         4.0         2.5         1.1         0.0         0.6         2.5         0.0         0.0         0.0         0.0         0.0         0.0         0.0         0.0         0.0         0.0         0.0         0.0         0.0         0.0         0.0         0.0         0.0         0.0         0.0         0.0         0.0         0.0         0.0         0.0         0.0         0.0         0.0         0.0         0.0         0.0         0.0         0.0         0.0         0.0         0.0         0.0         0.0         0.0         0.0         0.0         0.0         0.0         0.0         0.0         0.0         0.0         0.0         0.0         0.0         0.0
DK_MAM_Slage         4.0         8.8         9.6        14.3        20.4        26.3        32.0        36.1        35.2        32.8        29.8        27.2        24.5        21.5        19.5        18.5        17.3        15.0        12.0         8.5         5.4         2.8         0.0         0.3         1.6        20.8        13.0         6.6         0.0         0.0         0.0         0.0         0.0         0.9         0.9        11.3        21.2        31.0        41.4        51.8        62.2        72.6        83.0        83.0        72.0        61.8        52.3        43.2        35.3        28.0         0.0         0.0         0.0         0.0         0.0         0.0         0.0         0.0         0.0         0.0         0.0         0.0         0.0         0.0         0.0         0.0         0.0         0.0         0.0         0.0         0.0         0.0         0.0         0.0         0.0
DK_MAM_Svend        10.6        17.7        21.1        25.0        29.3        33.4        37.5        41.2        41.8        39.0        35.7        32.4        28.9        25.7        23.1        20.5        17.9        14.9        12.0         8.8         5.5         2.5         0.0         1.3         5.6        24.5        17.0         9.6         5.0         5.0         5.0         5.0         0.0         2.8         2.8         9.9        16.2        21.9        28.1        35.2        42.3        49.4        56.4        56.4        56.4        56.4        49.0        46.6        39.1        31.7         0.0         0.0         0.0         0.0         0.0         0.0         0.0         0.0         0.0         0.0         0.0         0.0         0.0         0.0         0.0         0.0         0.0         0.0         0.0         0.0         0.0         0.0         0.0         0.0         0.0
DK_MAM_Thist        29.1        37.2        41.1        45.5        50.5        55.3        60.0        64.2        64.9        61.7        57.9        54.0        50.1        46.4        43.4        40.4        37.4        34.0        30.6        27.0        23.1        19.6        16.8        18.4        23.2         7.5         7.5         7.5         4.5         4.5         4.5         4.5         0.0         0.0         8.1        16.3        23.6        30.1        37.3        45.4        53.6        61.7        64.9        56.4        47.8        39.2        30.7        22.1        19.1        10.5         0.0         0.0         0.0         0.0         0.0         0.0         0.0         0.0         0.0         0.0         0.0         0.0         0.0         0.0         0.0         0.0         0.0         0.0         0.0         0.0         0.0         0.0         0.0         0.0         0.0
DK_MAM_Aars          6.6        10.9        13.0        15.4        18.1        20.6        23.1        25.4        25.8        24.1        22.0        20.0        17.8        15.9        14.2        12.6        11.1         9.2         7.4         5.5         3.4         1.5         0.0         0.8         3.4         9.6         9.6         4.9         4.9         4.9         4.9         4.9         0.0         6.6        13.3        17.7        21.7        25.2        29.0        35.6        42.3        48.9        53.0        46.0        39.0        32.0        25.5        19.6        14.6        10.0        53.0        53.0        53.0        53.0        53.0        53.0        53.0        53.0        53.0        53.0        53.0        53.0        53.0        53.0        53.0        53.0        53.0        53.0        53.0        53.0        53.0        53.0        53.0        53.0        53.0
DK_E_Rural         820.1       836.5       814.1       830.5       859.1       885.6       911.1       921.1       926.0       916.6       902.1       891.2       879.2       865.7       860.9       865.7       868.5       860.4       845.9       825.9       809.7       799.2       785.8       801.3       826.9       303.0       234.4       179.7       122.9        73.8        59.7        59.7         0.0        37.2       153.3       230.3       303.3       377.1       461.7       577.8       693.9       809.9       926.0       836.9       743.9       658.4       576.8       497.5       428.5       365.4         0.0         0.0         0.0         0.0         0.0         0.0         0.0         0.0         0.0         0.0         0.0         0.0         0.0         0.0         0.0         0.0         0.0         0.0         0.0         0.0         0.0         0.0         0.0         0.0         0.0
DK_W_Rural        1580.3      1812.1      1921.5      2045.3      2186.9      2320.9      2454.1      2575.8      2593.0      2499.3      2389.1      2278.6      2166.6      2068.1      1987.4      1907.8      1827.2      1728.7      1631.8      1526.5      1414.2      1313.1      1231.6      1273.7      1413.6       580.9       390.0       200.5       200.5       200.5       200.5       200.5         0.0       325.0       547.5       822.8      1084.5      1339.1      1618.0      1943.0      2268.0      2593.0      2593.0      2345.6      2003.4      1670.2      1400.8      1151.9       946.5       759.1         0.0         0.0         0.0         0.0         0.0         0.0         0.0         0.0         0.0         0.0         0.0         0.0         0.0         0.0         0.0         0.0         0.0         0.0         0.0         0.0         0.0         0.0         0.0         0.0         0.0
DK_E_IndETOH       147.7       295.3       443.0       590.6       738.3       885.9      1033.6      1178.0      1091.8       936.4       780.9       928.6      1076.2       920.8       765.4       610.0       454.5       394.1       541.8       386.4       230.9       155.4         0.0         0.0         0.0        90.0         0.0         0.0         0.0         0.0         0.0         0.0         0.0         0.0         0.0       147.7       295.3       443.0       590.6       738.3       885.9      1033.6      1178.0      1178.0      1022.6       867.1       711.7       556.3       400.9       245.4       295.3       295.3       295.3       295.3       295.3       295.3       295.3       295.3       295.3       155.4         0.0         0.0         0.0         0.0         0.0       147.7       147.7       147.7       147.7       147.7       147.7       147.7       147.7       147.7       147.7
DK_W_IndETOH       220.5       441.0       661.4       881.9      1102.4      1322.9      1543.4      1759.0      1759.0      1526.9      1294.8      1294.8      1392.5      1160.4       928.3       696.2       464.2       464.2       464.2       232.1         0.0         0.0         0.0         0.0         0.0         0.0         0.0         0.0         0.0         0.0         0.0         0.0         0.0         0.0         0.0       220.5       441.0       661.4       881.9      1102.4      1322.9      1543.4      1759.0      1526.9      1294.8      1062.8       830.7       598.6       366.5       134.4       441.0       441.0       441.0       441.0       441.0       441.0       441.0       441.0       441.0       232.1         0.0         0.0         0.0         0.0         0.0       220.5       220.5       220.5       220.5       220.5       220.5       220.5       220.5       220.5       220.5

